ble_hal_aci.c:21:12:aci_hal_get_fw_build_number	48	static
ble_hal_aci.c:39:12:aci_hal_write_config_data	312	static
ble_hal_aci.c:66:12:aci_hal_read_config_data	568	static
ble_hal_aci.c:94:12:aci_hal_set_tx_power_level	312	static
ble_hal_aci.c:118:12:aci_hal_le_tx_test_packet_number	48	static
ble_hal_aci.c:136:12:aci_hal_tone_start	312	static
ble_hal_aci.c:160:12:aci_hal_tone_stop	40	static
ble_hal_aci.c:174:12:aci_hal_get_link_status	72	static
ble_hal_aci.c:194:12:aci_hal_set_radio_activity_mask	312	static
ble_hal_aci.c:215:12:aci_hal_get_anchor_period	56	static
ble_hal_aci.c:235:12:aci_hal_set_event_mask	312	static
ble_hal_aci.c:256:12:aci_hal_get_pm_debug_info	56	static
ble_hal_aci.c:278:12:aci_hal_set_slave_latency	312	static
ble_hal_aci.c:299:12:aci_hal_read_radio_reg	312	static
ble_hal_aci.c:325:12:aci_hal_write_radio_reg	312	static
ble_hal_aci.c:349:12:aci_hal_read_raw_rssi	48	static
ble_hal_aci.c:367:12:aci_hal_rx_start	312	static
ble_hal_aci.c:388:12:aci_hal_rx_stop	40	static
ble_hal_aci.c:402:12:aci_hal_stack_reset	40	static
